"","X1","topic","top_terms","name","Mitigation","Emissions","Negative emissions","Energy","Buildings","Transport","Industry","Waste","AFOLU","Cross-sectoral (mitigation)","Adaptation","Technological","Management","Behavioural & institutional","Ecosystem-based","Cross-sectoral (adaptation)","Impacts","Coastal & marine","Human-managed","Mountains, snow & ice","Rivers, lakes, & soil moisture","Terrestrial","Cross-sectoral (impacts)","geography","research","Cross-cutting","Water","Policy & governance","Health","other_other","group1","group2"
"1","1",1,"climat, chang, impact, mitig, affect, increas, respons","Adaptation response",0,0,0,0,0,0,0,0,0,0,1,0,1,0,0,0,0,0,0,0,0,0,0,0,0,0,0,0,0,0,"Adaptation","Management"
"2","2",2,"factor, influenc, structur, intens, main, drive, affect","Factor",0,0,0,0,0,0,0,0,0,0,0,0,0,0,0,0,0,0,0,0,0,0,0,0,1,0,0,0,0,0,"Mitigation","Emissions"
"3","3",3,"may, also, particular, term, possibl, exampl, howev","Frequent words 1",0,0,0,0,0,0,0,0,0,0,0,0,0,0,0,0,0,0,0,0,0,0,0,0,1,0,0,0,0,0,"Mitigation","Emissions"
"4","4",4,"resourc, demand, suppli, increas, meet, requir, util","Supply & demand",0,0,0,0,0,0,0,0,0,0,0,0,0,0,0,0,0,0,0,0,0,0,0,0,0,1,0,0,0,1,"Cross-cutting","Emissions"
"5","5",5,"will, expect, need, like, requir, come, current","Frequent words 2",0,0,0,0,0,0,0,0,0,0,0,0,0,0,0,0,0,0,0,0,0,0,0,0,1,0,0,0,0,0,"Mitigation","Emissions"
"6","6",6,"sequestr, storag, stock, biomass, total, plot, store","Carbon sequestration",1,0,1,0,0,0,0,0,0,0,0,0,0,0,0,0,0,0,0,0,0,0,0,0,0,0,0,0,0,0,"Mitigation","Negative emissions"
"7","7",7,"landfil, methan, ipcc, use, collect, rate, potenti","Landfil methane",1,0,0,0,0,0,0,1,0,0,0,0,0,0,0,0,0,0,0,0,0,0,0,0,0,0,0,0,0,0,"Mitigation","Waste"
"8","8",8,"european, europ, germani, franc, republ, netherland, german","Europe",0,0,0,0,0,0,0,0,0,0,0,0,0,0,0,0,0,0,0,0,0,0,0,1,0,0,0,0,0,0,"Mitigation","Emissions"
"9","9",9,"period, day, time, month, year, daili, number","Period",0,0,0,0,0,0,0,0,0,0,0,0,0,0,0,0,0,0,0,0,0,0,0,0,1,0,0,0,0,0,"Mitigation","Emissions"
"10","10",10,"intern, regul, nation, trade, law, right, agreement","International trade",0,0,0,0,0,0,0,0,0,0,0,0,0,0,0,0,0,0,0,0,0,0,0,0,0,1,0,0,0,1,"Cross-cutting","Emissions"
"11","11",11,"aerosol, particl, absorpt, dust, radiat, black, cloud","Aerosol",0,0,0,0,0,0,0,0,0,0,0,0,0,0,0,0,1,0,0,0,0,0,1,0,0,0,0,0,0,0,"Impacts","Cross-sectoral (impacts)"
"12","12",12,"cost, feasibl, econom, hybrid, price, net, present","Economic feasibility",0,0,0,0,0,0,0,0,0,0,0,0,0,0,0,0,0,0,0,0,0,0,0,0,0,1,0,0,0,1,"Cross-cutting","Emissions"
"13","13",13,"one, like, can, even, make, time, just","Verbs",0,0,0,0,0,0,0,0,0,0,0,0,0,0,0,0,0,0,0,0,0,0,0,0,0,1,0,0,0,1,"Cross-cutting","Emissions"
"14","14",14,"rainfal, precipit, rain, intens, heavi, durat, return","Rainfall intensity",0,0,0,0,0,0,0,0,0,0,0,0,0,0,0,0,1,0,0,0,0,0,1,0,0,0,0,0,0,0,"Impacts","Cross-sectoral (impacts)"
"15","15",15,"soil, moistur, content, soc, depth, respir, signific","Soil moisture",0,0,0,0,0,0,0,0,0,0,0,0,0,0,0,0,1,0,0,0,1,0,0,0,0,0,0,0,0,0,"Impacts","Rivers, lakes, & soil moisture"
"16","16",16,"thermal, comfort, condit, outdoor, temperatur, indoor, studi","Thermal comfort",0,0,0,0,0,0,0,0,0,0,0,0,0,0,0,0,1,0,1,0,0,0,0,0,0,0,0,0,0,0,"Impacts","Human-managed"
"17","17",17,"vehicl, motor, fleet, emiss, automobil, gasolin, vehicular","Vehicle emissions",1,0,0,0,0,1,0,0,0,0,0,0,0,0,0,0,0,0,0,0,0,0,0,0,0,0,0,0,0,0,"Mitigation","Transport"
"18","18",18,"municip, financi, busi, market, tax, invest, incent","Finance",0,0,0,0,0,0,0,0,0,0,0,0,0,0,0,0,0,0,0,0,0,0,0,0,0,1,0,0,0,1,"Cross-cutting","Emissions"
"19","19",19,"imag, remot, sens, lst, satellit, landsat, map","Satelite imagery",0,0,0,0,0,0,0,0,0,0,0,0,0,0,0,0,0,0,0,0,0,0,0,0,1,0,0,0,0,0,"Mitigation","Emissions"
"20","20",20,"mortal, temperatur, associ, death, increas, heatwav, risk","Mortality",0,0,0,0,0,0,0,0,0,0,0,0,0,0,0,0,1,0,1,0,0,0,0,0,0,0,0,0,0,0,"Impacts","Human-managed"
"21","21",21,"compost, biochar, amend, pyrolysi, remedi, applic, substrat","Biochar",1,0,1,0,0,0,0,0,0,0,0,0,0,0,0,0,0,0,0,0,0,0,0,0,0,0,0,0,0,0,"Mitigation","Negative emissions"
"22","22",22,"major, sector, contribut, largest, one, contributor, larg","Major contribution",0,0,0,0,0,0,0,0,0,0,0,0,0,0,0,0,0,0,0,0,0,0,0,0,0,1,0,0,0,1,"Cross-cutting","Emissions"
"23","23",23,"environ, problem, issu, serious, environment, etc, concern","Environmtnal problems",0,0,0,0,0,0,0,0,0,0,0,0,0,0,0,0,0,0,0,0,0,0,0,0,0,1,0,0,0,1,"Cross-cutting","Emissions"
"24","24",24,"remov, nitrogen, oxid, oxygen, dissolv, nitrat, high","Waste chemicals",1,0,0,0,0,0,0,1,0,0,0,0,0,0,0,0,0,0,0,0,0,0,0,0,0,0,0,0,0,0,"Mitigation","Waste"
"25","25",25,"ground, layer, boundari, vertic, profil, permafrost, depth","Permafrost",0,0,0,0,0,0,0,0,0,0,0,0,0,0,0,0,1,0,0,0,0,1,0,0,0,0,0,0,0,0,"Impacts","Terrestrial"
"26","26",26,"villag, district, percent, thailand, two, one, name","Village",0,0,0,0,0,0,0,0,0,0,0,0,0,0,0,0,0,0,0,0,0,0,0,1,0,0,0,0,0,0,"Mitigation","Emissions"
"27","27",27,"observ, measur, monitor, resolut, invers, use, detect","Emission monitoring",1,1,0,0,0,0,0,0,0,0,0,0,0,0,0,0,0,0,0,0,0,0,0,0,0,0,0,0,0,0,"Mitigation","Emissions"
"28","28",28,"fire, regim, wildfir, burn, california, prescrib, interfac","Wildfire",0,0,0,0,0,0,0,0,0,0,0,0,0,0,0,0,1,0,0,0,0,1,0,0,0,0,0,0,0,0,"Impacts","Terrestrial"
"29","29",29,"build, residenti, exist, retrofit, use, stock, standard","Building retrofit",1,0,0,0,1,0,0,0,0,0,0,0,0,0,0,0,0,0,0,0,0,0,0,0,0,0,0,0,0,0,"Mitigation","Buildings"
"30","30",30,"veget, cover, grassland, coverag, ndvi, npp, activ","Vegetation cover",1,0,0,0,0,0,0,0,1,0,0,0,0,0,0,0,0,0,0,0,0,0,0,0,0,0,0,0,0,0,"Mitigation","AFOLU"
"31","31",31,"coral, reef, stressor, recruit, respons, stress, benthic","Coral stressors",0,0,0,0,0,0,0,0,0,0,0,0,0,0,0,0,1,1,0,0,0,0,0,0,0,0,0,0,0,0,"Impacts","Coastal & marine"
"32","32",32,"surfac, aggreg, pavement, reflect, albedo, impervi, evapor","Pavement albedo",0,0,0,0,0,0,0,0,0,0,0,0,0,0,0,0,1,0,1,0,0,0,0,0,0,0,0,0,0,0,"Impacts","Human-managed"
"33","33",33,"sustain, develop, toward, ensur, need, promot, principl","Sustainable development",0,0,0,0,0,0,0,0,0,0,0,0,0,0,0,0,0,0,0,0,0,0,0,0,0,1,0,0,0,1,"Cross-cutting","Emissions"
"34","34",34,"forest, deforest, forestri, plantat, wood, afforest, reforest","Deforestation",1,0,0,0,0,0,0,0,1,0,0,0,0,0,0,0,0,0,0,0,0,0,0,0,0,0,0,0,0,0,"Mitigation","AFOLU"
"35","35",35,"risk, disast, hazard, reduct, increas, prevent, assess","Disaster risk reduction",0,0,0,0,0,0,0,0,0,0,1,0,0,0,0,1,0,0,0,0,0,0,0,0,0,0,0,0,0,0,"Adaptation","Cross-sectoral (adaptation)"
"36","36",36,"diseas, incid, dengu, case, hospit, patient, report","Dengue",0,0,0,0,0,0,0,0,0,0,0,0,0,0,0,0,0,0,0,0,0,0,0,0,0,1,0,0,1,0,"Cross-cutting","Health"
"37","37",37,"polici, promot, adopt, pilot, implement, maker, policymak","Policy adoption",0,0,0,0,0,0,0,0,0,0,0,0,0,0,0,0,0,0,0,0,0,0,0,0,0,1,0,1,0,0,"Cross-cutting","Policy & governance"
"38","38",38,"varieti, date, seed, cut, replic, condit, trial","Seed & variety",0,0,0,0,0,0,0,0,0,0,1,0,1,0,0,0,0,0,0,0,0,0,0,0,0,0,0,0,0,0,"Adaptation","Management"
"39","39",39,"island, marin, ocean, fish, bay, pacif, sea","Marine fisheries",0,0,0,0,0,0,0,0,0,0,0,0,0,0,0,0,1,1,0,0,0,0,0,0,0,0,0,0,0,0,"Impacts","Coastal & marine"
"40","40",40,"estim, inventori, quantifi, use, nation, deriv, quantif","Emission inventory",1,1,0,0,0,0,0,0,0,0,0,0,0,0,0,0,0,0,0,0,0,0,0,0,0,0,0,0,0,0,"Mitigation","Emissions"
"41","41",41,"stage, load, foundat, earli, pipe, bear, matur","Capacity load",0,0,0,0,0,0,0,0,0,0,0,0,0,0,0,0,0,0,0,0,0,0,0,0,0,1,0,0,0,1,"Cross-cutting","Emissions"
"42","42",42,"fuel, fossil, use, coal, combust, wood, burn","Fossil fuel combustion",1,0,0,1,0,0,0,0,0,0,0,0,0,0,0,0,0,0,0,0,0,0,0,0,0,0,0,0,0,0,"Mitigation","Energy"
"43","43",43,"pollut, air, qualiti, control, improv, level, standard","Air pollution standards",1,1,0,0,0,0,0,0,0,0,0,0,0,0,0,0,0,0,0,0,0,0,0,0,0,0,0,0,0,0,"Mitigation","Emissions"
"44","44",44,"farmer, farm, adopt, smallhold, strategi, improv, extens","Smallholding Farmers",0,0,0,0,0,0,0,0,0,0,1,0,1,0,0,0,0,0,0,0,0,0,0,0,0,0,0,0,0,0,"Adaptation","Management"
"45","45",45,"model, simul, use, dynam, result, coupl, comput","Model simulations",0,0,0,0,0,0,0,0,0,0,0,0,0,0,0,0,0,0,0,0,0,0,0,0,1,0,0,0,0,0,"Mitigation","Emissions"
"46","46",46,"real, export, estat, labour, sri, lanka, neighbour","Real estate",0,0,0,0,0,0,0,0,0,0,0,0,0,0,0,0,0,0,0,0,0,0,0,0,0,1,0,0,0,1,"Cross-cutting","Emissions"
"47","47",47,"heat, wave, stress, hot, increas, high, spot","Heat waves",0,0,0,0,0,0,0,0,0,0,0,0,0,0,0,0,1,0,0,0,0,0,1,0,0,0,0,0,0,0,"Impacts","Cross-sectoral (impacts)"
"48","48",48,"capita, relationship, per, impact, gdp, level, studi","Relationship",0,0,0,0,0,0,0,0,0,0,0,0,0,0,0,0,0,0,0,0,0,0,0,0,1,0,0,0,0,0,"Mitigation","Emissions"
"49","49",49,"initi, program, support, effort, agenc, fund, programm","Project funding",0,0,0,0,0,0,0,0,0,0,0,0,0,0,0,0,0,0,0,0,0,0,0,0,1,0,0,0,0,0,"Mitigation","Emissions"
"50","50",50,"ethiopia, pastur, coffe, graze, degrad, pastor, tanzania","Pasture degradation",0,0,0,0,0,0,0,0,0,0,0,0,0,0,0,0,0,0,0,0,0,0,0,0,0,1,0,0,0,1,"Cross-cutting","Emissions"
"51","51",51,"irrig, australia, harvest, australian, rainwat, melbourn, tank","Agricutrual yield harvest",1,0,0,0,0,0,0,0,1,0,0,0,0,0,0,0,0,0,0,0,0,0,0,0,0,0,0,0,0,0,"Mitigation","AFOLU"
"52","52",52,"servic, ecosystem, provid, valu, provis, regul, function","Ecosystem services",0,0,0,0,0,0,0,0,0,0,0,0,0,0,0,0,0,0,0,0,0,0,0,0,0,1,0,0,0,1,"Cross-cutting","Emissions"
"53","53",53,"variat, valu, correl, meteorolog, relat, wind, show","Meteorological vairation",0,0,0,0,0,0,0,0,0,0,0,0,0,0,0,0,0,0,0,0,0,0,0,0,0,1,0,0,0,1,"Cross-cutting","Emissions"
"54","54",54,"manag, collect, proper, separ, improv, current, includ","Management practices",0,0,0,0,0,0,0,0,0,0,0,0,0,0,0,0,0,0,0,0,0,0,0,0,0,1,0,0,0,1,"Cross-cutting","Emissions"
"55","55",55,"scienc, univers, educ, student, school, scientist, scientif","Scientific knowledge",0,0,0,0,0,0,0,0,0,0,0,0,0,0,0,0,0,0,0,0,0,0,0,0,1,0,0,0,0,0,"Mitigation","Emissions"
"56","56",56,"mobil, smart, share, intellig, platform, user, monitor","Smart platform",0,0,0,0,0,0,0,0,0,0,0,0,0,0,0,0,0,0,0,0,0,0,0,0,0,1,0,0,0,1,"Cross-cutting","Emissions"
"57","57",57,"protect, tropic, mangrov, reserv, rehabilit, subtrop, biom","Mangrove protection",1,0,0,0,0,0,0,0,1,0,0,0,0,0,0,0,0,0,0,0,0,0,0,0,0,0,0,0,0,0,"Mitigation","AFOLU"
"58","58",58,"variabl, regress, relationship, explain, depend, linear, multipl","Regression",0,0,0,0,0,0,0,0,0,0,0,0,0,0,0,0,0,0,0,0,0,0,0,0,1,0,0,0,0,0,"Mitigation","Emissions"
"59","59",59,"global, warm, worldwid, contribut, scale, increas, concern","Global warming",0,0,0,0,0,0,0,0,0,0,0,0,0,0,0,0,1,0,0,0,0,0,1,0,0,0,0,0,0,0,"Impacts","Cross-sectoral (impacts)"
"60","60",60,"urban, increas, abstract, waterlog, can, becom, complex","Waterlogging",0,0,0,0,0,0,0,0,0,0,0,0,0,0,0,0,1,0,0,0,1,0,0,0,0,0,0,0,0,0,"Impacts","Rivers, lakes, & soil moisture"
"61","61",61,"record, isotop, geolog, stabl, local, rock, format","Geological stability",0,0,0,0,0,0,0,0,0,0,0,0,0,0,0,0,0,0,0,0,0,0,0,0,0,1,0,0,0,1,"Cross-cutting","Emissions"
"62","62",62,"polit, argu, way, form, contemporari, place, theori","Chapter",0,0,0,0,0,0,0,0,0,0,0,0,0,0,0,0,0,0,0,0,0,0,0,0,1,0,0,0,0,0,"Mitigation","Emissions"
"63","63",63,"green, roof, reduc, greeneri, can, blue, mitig","Green roofs",1,0,0,0,1,0,0,0,0,0,0,0,0,0,0,0,0,0,0,0,0,0,0,0,0,0,0,0,0,0,"Mitigation","Buildings"
"64","64",64,"effect, negat, direct, posit, reduc, affect, signific","Direct effect",0,0,0,0,0,0,0,0,0,0,0,0,0,0,0,0,0,0,0,0,0,0,0,0,1,0,0,0,0,0,"Mitigation","Emissions"
"65","65",65,"area, studi, result, analyz, show, aim, determin","Study area",0,0,0,0,0,0,0,0,0,0,0,0,0,0,0,0,0,0,0,0,0,0,0,0,1,0,0,0,0,0,"Mitigation","Emissions"
"66","66",66,"stabil, oper, reactor, condit, rate, time, perform","Reactor operation",0,0,0,0,0,0,0,0,0,0,0,0,0,0,0,0,0,0,0,0,0,0,0,0,0,1,0,0,0,1,"Cross-cutting","Emissions"
"67","67",67,"achiev, goal, target, meet, set, reach, zero","Goal achievement",0,0,0,0,0,0,0,0,0,0,0,0,0,0,0,0,0,0,0,0,0,0,0,0,0,1,0,1,0,0,"Cross-cutting","Policy & governance"
"68","68",68,"plant, growth, leaf, root, condit, stress, toler","Plants",0,0,0,0,0,0,0,0,0,0,0,0,0,0,0,0,0,0,0,0,0,0,0,0,0,1,0,0,0,1,"Cross-cutting","Emissions"
"69","69",69,"india, like, indian, various, pakistan, also, present","India",0,0,0,0,0,0,0,0,0,0,0,0,0,0,0,0,0,0,0,0,0,0,0,1,0,0,0,0,0,0,"Mitigation","Emissions"
"70","70",70,"engin, drive, hybrid, cycl, condit, control, convent","Hybrid engines",1,0,0,0,0,1,0,0,0,0,0,0,0,0,0,0,0,0,0,0,0,0,0,0,0,0,0,0,0,0,"Mitigation","Transport"
"71","71",71,"land, use, chang, expans, land-us, increas, lulc","Land use change",1,0,0,0,0,0,0,0,1,0,0,0,0,0,0,0,0,0,0,0,0,0,0,0,0,0,0,0,0,0,"Mitigation","AFOLU"
"72","72",72,"recycl, plastic, packag, retail, use, item, shop","Plastic recycling",1,0,0,0,0,0,0,1,0,0,0,0,0,0,0,0,0,0,0,0,0,0,0,0,0,0,0,0,0,0,"Mitigation","Waste"
"73","73",73,"lake, sediment, eros, anthropogen, increas, chang, activ","Lakes & erosion",0,0,0,0,0,0,0,0,0,0,0,0,0,0,0,0,1,0,0,0,1,0,0,0,0,0,0,0,0,0,"Impacts","Rivers, lakes, & soil moisture"
"74","74",74,"construct, hous, home, embodi, dwell, apart, afford","Building construction",1,0,0,0,1,0,0,0,0,0,0,0,0,0,0,0,0,0,0,0,0,0,0,0,0,0,0,0,0,0,"Mitigation","Buildings"
"75","75",75,"benefit, solut, potenti, can, offer, provid, mitig","Mitigation benefits",1,0,0,0,0,0,0,0,0,1,0,0,0,0,0,0,0,0,0,0,0,0,0,0,0,0,0,0,0,0,"Mitigation","Cross-sectoral (mitigation)"
"76","76",76,"reus, use, decentr, desalin, clean, revers, altern","Desalination technology",0,0,0,0,0,0,0,0,0,0,1,1,0,0,0,0,0,0,0,0,0,0,0,0,0,0,0,0,0,0,"Adaptation","Technological"
"77","77",77,"car, rout, passeng, deliveri, ownership, time, taxi","Passenger transport",1,0,0,0,0,1,0,0,0,0,0,0,0,0,0,0,0,0,0,0,0,0,0,0,0,0,0,0,0,0,"Mitigation","Transport"
"78","78",78,"process, fraction, step, ofmsw, follow, involv, can","Process",0,0,0,0,0,0,0,0,0,0,0,0,0,0,0,0,0,0,0,0,0,0,0,0,0,1,0,0,0,1,"Cross-cutting","Emissions"
"79","79",79,"drainag, stormwat, runoff, storm, volum, sewer, control","Stormwater runoff",0,0,0,0,0,0,0,0,0,0,0,0,0,0,0,0,1,0,0,0,1,0,0,0,0,0,0,0,0,0,"Impacts","Rivers, lakes, & soil moisture"
"80","80",80,"type, differ, zone, map, identifi, geograph, characterist","Different zones",0,0,0,0,0,0,0,0,0,0,0,0,0,0,0,0,0,0,0,0,0,0,0,0,1,0,0,0,0,0,"Mitigation","Emissions"
"81","81",81,"state, unit, nation, paid, kingdom, texa, current","State",0,0,0,0,0,0,0,0,0,0,0,0,0,0,0,0,0,0,0,0,0,0,0,1,0,0,0,0,0,0,"Mitigation","Emissions"
"82","82",82,"accumul, preserv, disturb, peat, peatland, intact, long-term","Peatland",1,0,1,0,0,0,0,0,0,0,0,0,0,0,0,0,0,0,0,0,0,0,0,0,0,0,0,0,0,0,"Mitigation","Negative emissions"
"83","83",83,"south, africa, east, west, african, north, sub-saharan","Cardinal directions",0,0,0,0,0,0,0,0,0,0,0,0,0,0,0,0,0,0,0,0,0,0,0,1,0,0,0,0,0,0,"Mitigation","Emissions"
"84","84",84,"bangladesh, salin, delta, cyclon, vietnam, salt, egypt","Bangladesh, Vietnam, Egypt",0,0,0,0,0,0,0,0,0,0,0,0,0,0,0,0,0,0,0,0,0,0,0,1,0,0,0,0,0,0,"Mitigation","Emissions"
"85","85",85,"research, studi, focus, review, paper, literatur, articl","Resarch focus",0,0,0,0,0,0,0,0,0,0,0,0,0,0,0,0,0,0,0,0,0,0,0,0,1,0,0,0,0,0,"Mitigation","Emissions"
"86","86",86,"implement, action, measur, aim, order, level, main","Strategy implementation",0,0,0,0,0,0,0,0,0,0,0,0,0,0,0,0,0,0,0,0,0,0,0,0,0,1,0,1,0,0,"Cross-cutting","Policy & governance"
"87","87",87,"household, incom, use, cook, famili, expenditur, stove","Household income",0,0,0,0,0,0,0,0,0,0,0,0,0,0,0,0,0,0,0,0,0,0,0,0,0,1,0,0,0,1,"Cross-cutting","Emissions"
"88","88",88,"health, human, children, well-, outcom, physic, mental","Public health",0,0,0,0,0,0,0,0,0,0,0,0,0,0,0,0,0,0,0,0,0,0,0,0,0,1,0,0,1,0,"Cross-cutting","Health"
"89","89",89,"survey, resid, prefer, attribut, respond, choic, pay","Resident preferences",0,0,0,0,0,0,0,0,0,0,0,0,0,0,0,0,0,0,0,0,0,0,0,0,0,1,0,0,0,1,"Cross-cutting","Emissions"
"90","90",90,"size, small, larger, bodi, smaller, larg, hypothesi","Size",0,0,0,0,0,0,0,0,0,0,0,0,0,0,0,0,0,0,0,0,0,0,0,0,1,0,0,0,0,0,"Mitigation","Emissions"
"91","91",91,"caus, due, loss, damag, increas, consequ, lead","Damage",0,0,0,0,0,0,0,0,0,0,0,0,0,0,0,0,1,0,1,0,0,0,0,0,0,0,0,0,0,0,"Impacts","Human-managed"
"92","92",92,"develop, countri, project, nation, cdm, current, far","Developing country",0,0,0,0,0,0,0,0,0,0,0,0,0,0,0,0,0,0,0,0,0,0,0,0,1,0,0,0,0,0,"Mitigation","Emissions"
"93","93",93,"cent, citya, worlda, copyright, regist, peoplea, reveal","Copyright",0,0,0,0,0,0,0,0,0,0,0,0,0,0,0,0,0,0,0,0,0,0,0,0,1,0,0,0,0,0,"Mitigation","Emissions"
"94","94",94,"natur, human, ecolog, activ, resourc, interact, complex","Nature-human interactions",0,0,0,0,0,0,0,0,0,0,0,0,0,0,0,0,0,0,0,0,0,0,0,0,0,1,0,0,0,1,"Cross-cutting","Emissions"
"95","95",95,"china, beij, chines, agglomer, shanghai, megac, rapid","Chinese agglomeration",0,0,0,0,0,0,0,0,0,0,0,0,0,0,0,0,0,0,0,0,0,0,0,1,0,0,0,0,0,0,"Mitigation","Emissions"
"96","96",96,"sourc, ratio, mix, primari, contribut, mass, secondari","Source and ratios",0,0,0,0,0,0,0,0,0,0,0,0,0,0,0,0,0,0,0,0,0,0,0,0,1,0,0,0,0,0,"Mitigation","Emissions"
"97","97",97,"vulner, assess, high, sensit, capac, socio-econom, exposur","Vulnerability",0,0,0,0,0,0,0,0,0,0,0,0,0,0,0,0,1,0,1,0,0,0,0,0,0,0,0,0,0,0,"Impacts","Human-managed"
"98","98",98,"plan, strateg, planner, address, paper, need, issu","Planning process",0,0,0,0,0,0,0,0,0,0,0,0,0,0,0,0,0,0,0,0,0,0,0,0,0,1,0,1,0,0,"Cross-cutting","Policy & governance"
"99","99",99,"hydrogen, cell, fuel, use, produc, carrier, technolog","Fuel cell",1,0,0,0,0,1,0,0,0,0,0,0,0,0,0,0,0,0,0,0,0,0,0,0,0,0,0,0,0,0,"Mitigation","Transport"
"100","100",100,"locat, site, town, within, surround, two, proxim","Site",0,0,0,0,0,0,0,0,0,0,0,0,0,0,0,0,0,0,0,0,0,0,0,0,1,0,0,0,0,0,"Mitigation","Emissions"
"101","101",101,"peak, phenolog, earlier, flower, time, delay, date","Phenology",0,0,0,0,0,0,0,0,0,0,1,0,0,0,1,0,0,0,0,0,0,0,0,0,0,0,0,0,0,0,"Adaptation","Ecosystem-based"
"102","102",102,"inform, provid, report, communic, use, help, lack","Imformation provision",0,0,0,0,0,0,0,0,0,0,0,0,0,0,0,0,0,0,0,0,0,0,0,0,0,1,0,0,0,1,"Cross-cutting","Emissions"
"103","103",103,"level, rise, sea, storm, sea-level, surg, slr","Sea-level rise & storm surges",0,0,0,0,0,0,0,0,0,0,0,0,0,0,0,0,1,1,1,0,0,0,0,0,0,0,0,0,0,0,"Impacts","Coastal & marine"
"104","104",104,"industri, invest, capit, japan, manufactur, enterpris, transfer","Investment capital",0,0,0,0,0,0,0,0,0,0,0,0,0,0,0,0,0,0,0,0,0,0,0,0,0,1,0,0,0,1,"Cross-cutting","Emissions"
"105","105",105,"econom, growth, economi, increas, decoupl, strong, develop","Economic growth",0,0,0,0,0,0,0,0,0,0,0,0,0,0,0,0,0,0,0,0,0,0,0,0,0,1,0,0,0,1,"Cross-cutting","Emissions"
"106","106",106,"diesel, fuel, bus, buse, use, truck, biodiesel","Diesel bus",1,0,0,0,0,1,0,0,0,0,0,0,0,0,0,0,0,0,0,0,0,0,0,0,0,0,0,0,0,0,"Mitigation","Transport"
"107","107",107,"traffic, road, congest, nois, speed, time, safeti","Traffic congestion",1,0,0,0,0,1,0,0,0,0,0,0,0,0,0,0,0,0,0,0,0,0,0,0,0,0,0,0,0,0,"Mitigation","Transport"
"108","108",108,"conflict, asia, civil, asian, polit, southeast, war","Asian war",0,0,0,0,0,0,0,0,0,0,0,0,0,0,0,0,0,0,0,0,0,0,0,0,0,1,0,0,0,1,"Cross-cutting","Emissions"
"109","109",109,"develop, low-carbon, low, paper, promot, analyz, base","Low-carbon development",1,1,0,0,0,0,0,0,0,0,0,0,0,0,0,0,0,0,0,0,0,0,0,0,0,0,0,0,0,0,"Mitigation","Emissions"
"110","110",110,"line, mode, track, rail, port, corridor, ship","Travel mode",0,1,0,0,0,1,0,0,0,0,0,0,0,0,0,0,0,0,0,0,0,0,0,0,0,0,0,0,0,0,"Mitigation","Emissions"
"111","111",111,"popul, rate, higher, increas, high, lower, greater","Population growth",0,0,0,0,0,0,0,0,0,0,0,0,0,0,0,0,0,0,0,0,0,0,0,0,0,1,0,0,0,1,"Cross-cutting","Emissions"
"112","112",112,"environment, impact, assess, life, cycl, potenti, result","Impact assessment",0,0,0,0,0,0,0,0,0,0,0,0,0,0,0,0,1,0,0,0,0,0,1,0,0,0,0,0,0,0,"Impacts","Cross-sectoral (impacts)"
"113","113",113,"river, basin, stream, dam, discharg, downstream, upstream","River basin",0,0,0,0,0,0,0,0,0,0,0,0,0,0,0,0,0,0,0,0,0,0,0,0,0,1,1,0,0,0,"Cross-cutting","Water"
"114","114",114,"park, lot, recreat, bat, use, vacant, camp","Parking proximity",1,0,0,0,0,1,0,0,0,0,0,0,0,0,0,0,0,0,0,0,0,0,0,0,0,0,0,0,0,0,"Mitigation","Transport"
"115","115",115,"uncertainti, thesi, rang, robust, account, flexibl, approach","Ucertainty & robustness",0,0,0,0,0,0,0,0,0,0,0,0,0,0,0,0,0,0,0,0,0,0,0,0,1,0,0,0,0,0,"Mitigation","Emissions"
"116","116",116,"public, transit, privat, shift, toward, case, ridership","Public & private transport",1,0,0,0,0,1,0,0,0,0,0,0,0,0,0,0,0,0,0,0,0,0,0,0,0,0,0,0,0,0,"Mitigation","Transport"
"117","117",117,"power, generat, plant, captur, storag, capac, util","Power generation",1,0,0,1,0,0,0,0,0,0,0,0,0,0,0,0,0,0,0,0,0,0,0,0,0,0,0,0,0,0,"Mitigation","Energy"
"118","118",118,"social, inequ, dimens, inclus, justic, access, equiti","Inequality",0,0,0,0,0,0,0,0,0,0,0,0,0,0,0,0,0,0,0,0,0,0,0,0,0,1,0,0,0,1,"Cross-cutting","Emissions"
"119","119",119,"period, late, reconstruct, settlement, earli, evid, archaeolog","Reconstruction",0,0,0,0,0,0,0,0,0,0,0,0,0,0,0,0,0,0,0,0,0,0,0,0,1,0,0,0,0,0,"Mitigation","Emissions"
"120","120",120,"effici, improv, save, reduc, light, use, can","Efficiency improvement",1,0,0,1,0,0,0,0,0,0,0,0,0,0,0,0,0,0,0,0,0,0,0,0,0,0,0,0,0,0,"Mitigation","Energy"
"121","121",121,"electr, batteri, electrif, technolog, use, decarbon, adopt","Electric vehicle charging",1,0,0,0,0,1,0,0,0,0,0,0,0,0,0,0,0,0,0,0,0,0,0,0,0,0,0,0,0,0,"Mitigation","Transport"
"122","122",122,"pandem, covid-, emerg, spread, lockdown, activ, human","COVID",0,0,0,0,0,0,0,0,0,0,0,0,0,0,0,0,0,0,0,0,0,0,0,0,0,1,0,0,1,0,"Cross-cutting","Health"
"123","123",123,"field, rice, residu, paddi, straw, corn, amp","Rice fields",1,0,0,0,0,0,0,0,1,0,0,0,0,0,0,0,0,0,0,0,0,0,0,0,0,0,0,0,0,0,"Mitigation","AFOLU"
"124","124",124,"wetland, restor, degrad, ecosystem, aquat, pond, buffer","Wetland restorage",0,0,0,0,0,0,0,0,0,0,1,0,0,0,1,0,0,0,0,0,0,0,0,0,0,0,0,0,0,0,"Adaptation","Ecosystem-based"
"125","125",125,"product, produc, market, chain, price, valu, increas","Products",0,0,0,0,0,0,0,0,0,0,0,0,0,0,0,0,0,0,0,0,0,0,0,0,0,1,0,0,0,1,"Cross-cutting","Emissions"
"126","126",126,"cultur, tourism, territori, heritag, histor, attract, tourist","Tourism",0,0,0,0,0,0,0,0,0,0,0,0,0,0,0,0,0,0,0,0,0,0,0,0,0,1,0,0,0,1,"Cross-cutting","Emissions"
"127","127",127,"msw, inciner, tonn, gasif, municip, studi, solid","Waste recycling",1,0,0,0,0,0,0,1,0,0,0,0,0,0,0,0,0,0,0,0,0,0,0,0,0,0,0,0,0,0,"Mitigation","Waste"
"128","128",128,"infrastructur, network, connect, critic, exist, asset, interconnect","Critical infrastructure",0,0,0,0,0,0,0,0,0,0,0,0,0,0,0,0,0,0,0,0,0,0,0,0,0,1,0,0,0,1,"Cross-cutting","Emissions"
"129","129",129,"peopl, live, migrat, displac, move, migrant, slum","Migration",0,0,0,0,0,0,0,0,0,0,1,0,0,1,0,0,0,0,0,0,0,0,0,0,0,0,0,0,0,0,"Adaptation","Behavioural & institutional"
"130","130",130,"tree, street, canopi, height, can, shade, provid","Tree cover",0,0,0,0,0,0,0,0,0,0,1,0,0,0,1,0,0,0,0,0,0,0,0,0,0,0,0,0,0,0,"Adaptation","Ecosystem-based"
"131","131",131,"groundwat, aquif, recharg, well, subsurfac, underground, shallow","Groundwater",0,0,0,0,0,0,0,0,0,0,0,0,0,0,0,0,0,0,0,0,0,0,0,0,0,1,1,0,0,0,"Cross-cutting","Water"
"132","132",132,"issu, book, confer, theme, author, special, intern","Book author",0,0,0,0,0,0,0,0,0,0,0,0,0,0,0,0,0,0,0,0,0,0,0,0,1,0,0,0,0,0,"Mitigation","Emissions"
"133","133",133,"temperatur, heat, island, cool, uhi, air, mitig","Urban heat islands",0,0,0,0,0,0,0,0,0,0,0,0,0,0,0,0,1,0,1,0,0,0,0,0,0,0,0,0,0,0,"Impacts","Human-managed"
"134","134",134,"propos, optim, object, consid, minim, scheme, algorithm","Method optimisation",0,0,0,0,0,0,0,0,0,0,0,0,0,0,0,0,0,0,0,0,0,0,0,0,1,0,0,0,0,0,"Mitigation","Emissions"
"135","135",135,"transport, logist, freight, use, increas, reduc, passeng","Freight",1,0,0,0,0,1,0,0,0,0,0,0,0,0,0,0,0,0,0,0,0,0,0,0,0,0,0,0,0,0,"Mitigation","Transport"
"136","136",136,"oil, compani, indonesia, profit, malaysia, palm, pipelin","Palm oil",1,0,0,0,0,0,0,0,1,0,0,0,0,0,0,0,0,0,0,0,0,0,0,0,0,0,0,0,0,0,"Mitigation","AFOLU"
"137","137",137,"mountain, ice, arctic, snow, glacier, nepal, altitud","Glaciers",0,0,0,0,0,0,0,0,0,0,0,0,0,0,0,0,1,0,0,1,0,0,0,0,0,0,0,0,0,0,"Impacts","Mountains, snow & ice"
"138","138",138,"nutrient, circular, metabol, economi, phosphorus, alga, microalga","Nutrient load",0,0,0,0,0,0,0,0,0,0,0,0,0,0,0,0,0,0,0,0,0,0,0,0,0,1,0,0,0,1,"Cross-cutting","Emissions"
"139","139",139,"year, per, million, total, annual, approxim, ton","Numbers & years",0,0,0,0,0,0,0,0,0,0,0,0,0,0,0,0,0,0,0,0,0,0,0,0,1,0,0,0,0,0,"Mitigation","Emissions"
"140","140",140,"method, evalu, analysi, perform, select, studi, result","Study & evaluate",0,0,0,0,0,0,0,0,0,0,0,0,0,0,0,0,0,0,0,0,0,0,0,0,1,0,0,0,0,0,"Mitigation","Emissions"
"141","141",141,"travel, distanc, mode, trip, use, commut, bicycl","Travel distance",1,0,0,0,0,1,0,0,0,0,0,0,0,0,0,0,0,0,0,0,0,0,0,0,0,0,0,0,0,0,"Mitigation","Transport"
"142","142",142,"habitat, speci, abund, rang, rich, bird, may","Species abundance",0,0,0,0,0,0,0,0,0,0,0,0,0,0,0,0,1,0,0,0,0,1,0,0,0,0,0,0,0,0,"Impacts","Terrestrial"
"143","143",143,"bioga, digest, anaerob, plant, use, potenti, produc","Biogas",1,0,0,1,0,0,0,0,0,0,0,0,0,0,0,0,0,0,0,0,0,0,0,0,0,0,0,0,0,0,"Mitigation","Energy"
"144","144",144,"amount, gase, emit, greenhous, releas, produc, ghgs","GHG emissions",1,1,0,0,0,0,0,0,0,0,0,0,0,0,0,0,0,0,0,0,0,0,0,0,0,0,0,0,0,0,"Mitigation","Emissions"
"145","145",145,"new, creat, york, london, togeth, zealand, england","Cities with ""New""",0,0,0,0,0,0,0,0,0,0,0,0,0,0,0,0,0,0,0,0,0,0,0,1,0,0,0,0,0,0,"Mitigation","Emissions"
"146","146",146,"indic, index, result, analysi, level, degre, measur","Analyze indices",0,0,0,0,0,0,0,0,0,0,0,0,0,0,0,0,0,0,0,0,0,0,0,0,1,0,0,0,0,0,"Mitigation","Emissions"
"147","147",147,"season, summer, winter, dri, spring, wet, cold","Rain seasonality",0,0,0,0,0,0,0,0,0,0,0,0,0,0,0,0,1,0,0,0,1,1,0,0,0,0,0,0,0,0,"Impacts","Rivers, lakes, & soil moisture"
"148","148",148,"energi, renew, wind, use, clean, turbin, potenti","Renewable energy technology",1,0,0,1,0,0,0,0,0,0,0,0,0,0,0,0,0,0,0,0,0,0,0,0,0,0,0,0,0,0,"Mitigation","Energy"
"149","149",149,"studi, data, use, interview, collect, group, women","Interview data",0,0,0,0,0,0,0,0,0,0,0,0,0,0,0,0,0,0,0,0,0,0,0,0,1,0,0,0,0,0,"Mitigation","Emissions"
"150","150",150,"fertil, input, increas, use, eros, applic, pesticid","Crop fertility",0,0,0,0,0,0,0,0,0,0,0,0,0,0,0,0,0,0,0,0,0,0,0,0,0,1,0,0,0,1,"Cross-cutting","Emissions"
"151","151",151,"consumpt, footprint, consum, direct, account, indirect, total","Consumption Footprint",1,0,0,0,0,0,0,0,0,1,0,0,0,0,0,0,0,0,0,0,0,0,0,0,0,0,0,0,0,0,"Mitigation","Cross-sectoral (mitigation)"
"152","152",152,"divers, biolog, isol, genet, sequenc, gene, evolutionari","Biological driversity",0,0,0,0,0,0,0,0,0,0,0,0,0,0,0,0,0,0,0,0,0,0,0,0,0,1,0,0,0,1,"Cross-cutting","Emissions"
"153","153",153,"system, oper, can, convent, refriger, subsystem, loop","System operation",0,0,0,0,0,0,0,0,0,0,0,0,0,0,0,0,0,0,0,0,0,0,0,0,0,1,0,0,0,1,"Cross-cutting","Emissions"
"154","154",154,"metal, concret, heavi, ash, cement, miner, steel","Concrete & metal",1,0,0,0,0,0,1,0,0,0,0,0,0,0,0,0,0,0,0,0,0,0,0,0,0,0,0,0,0,0,"Mitigation","Industry"
"155","155",155,"emiss, reduct, ghg, reduc, total, mitig, result","Emission reduction",1,1,0,0,0,0,0,0,0,0,0,0,0,0,0,0,0,0,0,0,0,0,0,0,0,0,0,0,0,0,"Mitigation","Emissions"
"156","156",156,"flux, anthropogen, net, measur, budget, cycl, sink","Flux",0,0,0,0,0,0,0,0,0,0,0,0,0,0,0,0,0,0,0,0,0,0,0,0,0,1,0,0,0,1,"Cross-cutting","Emissions"
"157","157",157,"tool, methodolog, decis, applic, use, support, present","Method",0,0,0,0,0,0,0,0,0,0,0,0,0,0,0,0,0,0,0,0,0,0,0,0,1,0,0,0,0,0,"Mitigation","Emissions"
"158","158",158,"gas, greenhous, reduc, natur, associ, use, well","GHG reduction",1,1,0,0,0,0,0,0,0,0,0,0,0,0,0,0,0,0,0,0,0,0,0,0,0,0,0,0,0,0,"Mitigation","Emissions"
"159","159",159,"farm, anim, livestock, feed, cattl, meat, breed","Animal livestock",1,0,0,0,0,0,0,0,1,0,0,0,0,0,0,0,0,0,0,0,0,0,0,0,0,0,0,0,0,0,"Mitigation","AFOLU"
"160","160",160,"hydrolog, watersh, catchment, runoff, impact, streamflow, chang","River catchment ",0,0,0,0,0,0,0,0,0,0,0,0,0,0,0,0,0,0,0,0,0,0,0,0,0,1,1,0,0,0,"Cross-cutting","Water"
"161","161",161,"reservoir, canada, canadian, ontario, bloom, toronto, quebec","Algae bloom",0,0,0,0,0,0,0,0,0,0,0,0,0,0,0,0,1,0,0,0,1,0,0,0,0,0,0,0,0,0,"Impacts","Rivers, lakes, & soil moisture"
"162","162",162,"citi, also, paper, spong, becom, barcelona, make","City papers",0,0,0,0,0,0,0,0,0,0,0,0,0,0,0,0,0,0,0,0,0,0,0,0,1,0,0,0,0,0,"Mitigation","Emissions"
"163","163",163,"distribut, mine, uniform, uneven, joint, tail, extract","Uniform distribution",0,0,0,0,0,0,0,0,0,0,0,0,0,0,0,0,0,0,0,0,0,0,0,0,1,0,0,0,0,0,"Mitigation","Emissions"
"164","164",164,"carbon, dioxid, neutral, sink, offset, can, balanc","Carbon offsetting ",1,0,1,0,0,0,0,0,0,0,0,0,0,0,0,0,0,0,0,0,0,0,0,0,0,0,0,0,0,0,"Mitigation","Negative emissions"
"165","165",165,"space, open, physic, neighborhood, neighbourhood, function, creat","Open spaces",0,0,0,0,0,0,0,0,0,0,1,0,0,0,1,0,0,0,0,0,0,0,0,0,0,0,0,0,0,0,"Adaptation","Ecosystem-based"
"166","166",166,"rapid, grow, challeng, poor, urbanis, centr, pressur","Rapid growth",0,0,0,0,0,0,0,0,0,0,0,0,0,0,0,0,0,0,0,0,0,0,0,0,0,1,0,0,0,1,"Cross-cutting","Emissions"
"167","167",167,"region, provinc, central, counti, northern, western, eastern","Cardinal directions 2",0,0,0,0,0,0,0,0,0,0,0,0,0,0,0,0,0,0,0,0,0,0,0,0,1,0,0,0,0,0,"Mitigation","Emissions"
"168","168",168,"wast, solid, municip, dispos, generat, dump, open","Solid waste disposal",1,0,0,0,0,0,0,1,0,0,0,0,0,0,0,0,0,0,0,0,0,0,0,0,0,0,0,0,0,0,"Mitigation","Waste"
"169","169",169,"crop, yield, cultiv, maiz, wheat, fruit, grain","Crop yield",0,0,0,0,0,0,0,0,0,0,0,0,0,0,0,0,0,0,0,0,0,0,0,0,0,1,0,0,0,1,"Cross-cutting","Emissions"
"170","170",170,"valley, arid, deposit, plain, desert, section, semi-arid","Aridity",0,0,0,0,0,0,0,0,0,0,0,0,0,0,0,0,1,0,0,0,0,1,0,0,0,0,0,0,0,0,"Impacts","Terrestrial"
"171","171",171,"flood, increas, inund, measur, event, damag, flash","Flood damage",0,0,0,0,0,0,0,0,0,0,0,0,0,0,0,0,1,0,1,0,0,0,0,0,0,0,0,0,0,0,"Impacts","Human-managed"
"172","172",172,"rural, livelihood, poverti, incom, poor, employ, access","Poverty",0,0,0,0,0,0,0,0,0,0,0,0,0,0,0,0,0,0,0,0,0,0,0,0,0,1,0,0,0,1,"Cross-cutting","Emissions"
"173","173",173,"age, presenc, old, preval, older, femal, male","Age",0,0,0,0,0,0,0,0,0,0,0,0,0,0,0,0,0,0,0,0,0,0,0,0,0,1,0,0,0,1,"Cross-cutting","Emissions"
"174","174",174,"matter, particul, nox, oxid, dioxid, acid, nitrogen","Oxides & acid",0,0,0,0,0,0,0,0,0,0,0,0,0,0,0,0,0,0,0,0,0,0,0,0,1,0,0,0,0,0,"Mitigation","Emissions"
"175","175",175,"organ, contamin, chemic, compound, substanc, toxic, doc","Organic contamination",0,0,0,0,0,0,0,0,0,0,0,0,0,0,0,0,0,0,0,0,0,0,0,0,0,1,0,0,0,1,"Cross-cutting","Emissions"
"176","176",176,"transmiss, vector, mosquito, infect, diseas, pathogen, virus","Mosquito transmission",0,0,0,0,0,0,0,0,0,0,0,0,0,0,0,0,0,0,0,0,0,0,0,0,0,1,0,0,1,0,"Cross-cutting","Health"
"177","177",177,"world, mani, around, becom, face, societi, today","World",0,0,0,0,0,0,0,0,0,0,0,0,0,0,0,0,0,0,0,0,0,0,0,0,1,0,0,0,0,0,"Mitigation","Emissions"
"178","178",178,"grid, charg, station, oper, deploy, load, penetr","Grid",1,0,0,1,0,0,0,0,0,0,0,0,0,0,0,0,0,0,0,0,0,0,0,0,0,0,0,0,0,0,"Mitigation","Energy"
"179","179",179,"test, sampl, element, phase, experiment, collect, experi","Experimental test",0,0,0,0,0,0,0,0,0,0,0,0,0,0,0,0,0,0,0,0,0,0,0,0,1,0,0,0,0,0,"Mitigation","Emissions"
"180","180",180,"speci, nativ, plant, invas, fauna, extinct, wild","Ecosystem changes",0,0,0,0,0,0,0,0,0,0,0,0,0,0,0,0,1,0,0,0,0,1,0,0,0,0,0,0,0,0,"Impacts","Terrestrial"
"181","181",181,"futur, scenario, current, potenti, project, pathway, two","Future szenario ",0,0,0,0,0,0,0,0,0,0,0,0,0,0,0,0,0,0,0,0,0,0,0,0,0,1,0,0,0,1,"Cross-cutting","Emissions"
"182","182",182,"settlement, surviv, larval, larva, reproduct, condit, temperatur","Larval survival",0,0,0,0,0,0,0,0,0,0,0,0,0,0,0,0,1,0,0,0,0,1,0,0,0,0,0,0,0,0,"Impacts","Terrestrial"
"183","183",183,"spatial, scale, pattern, tempor, dynam, differ, heterogen","Spatial patterns",0,0,0,0,0,0,0,0,0,0,0,0,0,0,0,0,0,0,0,0,0,0,0,1,0,0,0,0,0,0,"Mitigation","Emissions"
"184","184",184,"approach, integr, strategi, framework, scale, within, case","Framework",0,0,0,0,0,0,0,0,0,0,0,0,0,0,0,0,0,0,0,0,0,0,0,0,1,0,0,0,0,0,"Mitigation","Emissions"
"185","185",185,"landscap, garden, grass, patch, aesthet, multifunct, lawn","Green spaces",0,0,0,0,0,0,0,0,0,0,1,0,0,0,1,0,0,0,0,0,0,0,0,0,0,0,0,0,0,0,"Adaptation","Ecosystem-based"
"186","186",186,"solar, instal, photovolta, radiat, panel, use, rooftop","Photovoltaic",1,0,0,1,0,0,0,0,0,0,0,0,0,0,0,0,0,0,0,0,0,0,0,0,0,0,0,0,0,0,"Mitigation","Energy"
"187","187",187,"biomass, biofuel, bioenergi, feedstock, use, convers, residu","Biofuels",1,0,0,0,0,1,0,0,0,0,0,0,0,0,0,0,0,0,0,0,0,0,0,0,0,0,0,0,0,0,"Mitigation","Transport"
"188","188",188,"practic, knowledg, tradit, indigen, agroforestri, best, contribut","Indigenous practices",0,0,0,0,0,0,0,0,0,0,0,0,0,0,0,0,0,0,0,0,0,0,0,0,0,1,0,0,0,1,"Cross-cutting","Emissions"
"189","189",189,"concentr, atmospher, ozon, anthropogen, voc, increas, tropospher","Ozone concentration",1,1,0,0,0,0,0,0,0,0,0,0,0,0,0,0,0,0,0,0,0,0,0,0,0,0,0,0,0,0,"Mitigation","Emissions"
"190","190",190,"local, govern, institut, actor, level, author, nation","Local government",0,0,0,0,0,0,0,0,0,0,0,0,0,0,0,0,0,0,0,0,0,0,0,0,0,1,0,1,0,0,"Cross-cutting","Policy & governance"
"191","191",191,"temperatur, increas, trend, decreas, annual, signific, mean","Temperature increase",0,0,0,0,0,0,0,0,0,0,0,0,0,0,0,0,1,0,0,0,0,0,1,0,0,0,0,0,0,0,"Impacts","Cross-sectoral (impacts)"
"192","192",192,"agricultur, intensif, declin, output, agrarian, soybean, main","Agricultural intensification",0,0,0,0,0,0,0,0,0,0,0,0,0,0,0,0,0,0,0,0,0,0,0,0,0,1,0,0,0,1,"Cross-cutting","Emissions"
"193","193",193,"flow, slope, landslid, failur, topographi, terrain, veloc","Erosion",0,0,0,0,0,0,0,0,0,0,0,0,0,0,0,0,1,0,0,0,0,1,0,0,0,0,0,0,0,0,"Impacts","Terrestrial"
"194","194",194,"data, use, predict, forecast, dataset, accur, avail","Forecasting",0,0,0,0,0,0,0,0,0,0,0,0,0,0,0,0,0,0,0,0,0,0,0,0,1,0,0,0,0,0,"Mitigation","Emissions"
"195","195",195,"technolog, challeng, innov, discuss, chapter, advanc, concept","Technological innovation",0,0,0,0,0,0,0,0,0,0,0,0,0,0,0,0,0,0,0,0,0,0,0,0,0,1,0,0,0,1,"Cross-cutting","Emissions"
"196","196",196,"exposur, care, burden, expos, worker, increas, work","Exposure",0,0,0,0,0,0,0,0,0,0,0,0,0,0,0,0,1,0,0,0,0,0,1,0,0,0,0,0,0,0,"Impacts","Cross-sectoral (impacts)"
"197","197",197,"treatment, wastewat, treat, sludg, plant, sewag, municip","Wastewater treatment",1,0,0,0,0,0,0,1,0,0,0,0,0,0,0,0,0,0,0,0,0,0,0,0,0,0,0,0,0,0,"Mitigation","Waste"
"198","198",198,"mechan, properti, strength, weak, replac, mixtur, reinforc","Strong & weak",0,0,0,0,0,0,0,0,0,0,0,0,0,0,0,0,0,0,0,0,0,0,0,0,1,0,0,0,0,0,"Mitigation","Emissions"
"199","199",199,"adapt, strategi, capac, measur, respons, cope, need","Adaptive capacity",0,0,0,0,0,0,0,0,0,0,1,0,0,0,0,1,0,0,0,0,0,0,0,0,0,0,0,0,0,0,"Adaptation","Cross-sectoral (adaptation)"
"200","200",200,"communiti, stakehold, particip, engag, involv, collabor, learn","Stakeholder participation",0,0,0,0,0,0,0,0,0,0,0,0,0,0,0,0,0,0,0,0,0,0,0,0,0,1,0,1,0,0,"Cross-cutting","Policy & governance"
"201","201",201,"pollen, woodland, oak, pine, taxa, cal, charcoal","Wood",1,0,0,0,0,0,0,0,1,0,0,0,0,0,0,0,0,0,0,0,0,0,0,0,0,0,0,0,0,0,"Mitigation","AFOLU"
"202","202",202,"option, facil, recoveri, recov, altern, life-cycl, wte","Recovery",0,0,0,0,0,0,0,0,0,0,0,0,0,0,0,0,0,0,0,0,0,0,0,0,0,1,0,0,0,1,"Cross-cutting","Emissions"
"203","203",203,"design, built, architectur, environ, principl, architect, concept","Architecture",1,0,0,0,1,0,0,0,0,0,0,0,0,0,0,0,0,0,0,0,0,0,0,0,0,0,0,0,0,0,"Mitigation","Buildings"
"204","204",204,"extrem, event, weather, drought, frequenc, condit, sever","Extreme weather impacts",0,0,0,0,0,0,0,0,0,0,0,0,0,0,0,0,1,0,0,0,0,0,1,0,0,0,0,0,0,0,"Impacts","Cross-sectoral (impacts)"
"205","205",205,"individu, behavior, awar, citizen, percept, behaviour, respons","Individual behaviour",0,0,0,0,0,0,0,0,0,0,0,0,0,0,0,0,0,0,0,0,0,0,0,0,0,1,0,0,0,1,"Cross-cutting","Emissions"
"206","206",206,"resili, concept, face, enhanc, transform, town, challeng","Resilience enhancement",0,0,0,0,0,0,0,0,0,0,1,0,1,0,0,0,0,0,0,0,0,0,0,0,0,0,0,0,0,0,"Adaptation","Management"
"207","207",207,"simul, ventil, microclim, block, perform, passiv, cool","Ventilation",0,0,0,0,0,0,0,0,0,0,1,1,0,0,0,0,0,0,0,0,0,0,0,0,0,0,0,0,0,0,"Adaptation","Technological"
"208","208",208,"food, secur, insecur, nutrit, diet, dietari, consum","Food security",1,0,0,0,0,0,0,0,1,0,0,0,0,0,0,0,0,0,0,0,0,0,0,0,0,0,0,0,0,0,"Mitigation","AFOLU"
"209","209",209,"compon, princip, reaction, separ, work, convert, catalyst","0",0,0,0,0,0,0,0,0,0,0,0,0,0,0,0,0,0,0,0,0,0,0,0,0,0,0,0,0,0,0,"Mitigation","Emissions"
"210","210",210,"materi, use, wall, raw, insul, techniqu, reflect","Material use ",1,0,0,0,0,0,1,0,0,0,0,0,0,0,0,0,0,0,0,0,0,0,0,0,0,0,0,0,0,0,"Mitigation","Industry"
"211","211",211,"conserv, biodivers, fragment, threat, loss, threaten, wildlif","Biodiversity conservation",0,0,0,0,0,0,0,0,0,0,0,0,0,0,0,0,0,0,0,0,0,0,0,0,0,1,0,0,0,1,"Cross-cutting","Emissions"
"212","212",212,"composit, communiti, gradient, microbi, activ, differ, function","Microbiotic communities",0,0,0,0,0,0,0,0,0,0,0,0,0,0,0,0,0,0,0,0,0,0,0,0,0,1,0,0,0,1,"Cross-cutting","Emissions"
"213","213",213,"heat, district, cool, pump, use, geotherm, combin","Heating & cooling",1,0,0,0,1,0,0,0,0,0,0,0,0,0,0,0,0,0,0,0,0,0,0,0,0,0,0,0,0,0,"Mitigation","Buildings"
"214","214",214,"america, north, brazil, mexico, american, brazilian, border","America",0,0,0,0,0,0,0,0,0,0,0,0,0,0,0,0,0,0,0,0,0,0,0,0,1,0,0,0,0,0,"Mitigation","Emissions"
"215","215",215,"water, use, scarciti, avail, qualiti, drink, shortag","Water availability",0,0,0,0,0,0,0,0,0,0,0,0,0,0,0,0,0,0,0,0,0,0,0,0,0,1,1,0,0,0,"Cross-cutting","Water"
"216","216",216,"form, densiti, center, metropolitan, sprawl, compact, suburban","Suburban sprawl",0,0,0,0,0,0,0,0,0,0,0,0,0,0,0,0,0,0,0,0,0,0,0,0,0,1,0,0,0,1,"Cross-cutting","Emissions"
"217","217",217,"sinc, recent, decad, last, past, year, centuri","Decades",0,0,0,0,0,0,0,0,0,0,0,0,0,0,0,0,0,0,0,0,0,0,0,0,1,0,0,0,0,0,"Mitigation","Emissions"
"218","218",218,"coastal, coast, mediterranean, along, eros, zone, beach","Coastal erosion",0,0,0,0,0,0,0,0,0,0,0,0,0,0,0,0,1,1,0,0,0,0,0,0,0,0,0,0,0,0,"Impacts","Coastal & marine"
"219","219",219,"import, role, key, understand, play, highlight, critic","Key understandin",0,0,0,0,0,0,0,0,0,0,0,0,0,0,0,0,0,0,0,0,0,0,0,0,1,0,0,0,0,0,"Mitigation","Emissions"
"220","220",220,"also, present, well, use, includ, can, one","Verbs",0,0,0,0,0,0,0,0,0,0,0,0,0,0,0,0,0,0,0,0,0,0,0,0,1,0,0,0,0,0,"Mitigation","Emissions"
