"","group2","case_false","case_true","ratio_case"
"1","Ecosystem-based",0.0101987125003934,0.0144859706628539,1.42037248939954
"2","Human-managed",0.0340686147878039,0.0478258588895879,1.40380990502463
"3","Rivers, lakes, & soil moisture",0.0318290371749435,0.0403694000069581,1.26831986104618
"4","Buildings",0.0280160307691896,0.0341166577541091,1.2177548645338
"5","Cross-sectoral (adaptation)",0.00785598130219232,0.00912403076664217,1.1614119758783
"6","Cross-sectoral (impacts)",0.0699502398312978,0.0802416267562478,1.14712439799735
"7","Technological",0.00559364433357215,0.00598716070819447,1.07035062495134
"8","Transport",0.0482566434565969,0.051227714205141,1.06156811862011
"9","Water",0.024439018307044,0.0253577089760935,1.03759114451765
"10","Health",0.0218741344986101,0.0224917137963869,1.02823331354281
"11","Policy & governance",0.0361203942907663,0.0367979566564613,1.01875844322852
"12","Negative emissions",0.023639363491502,0.0233875253455657,0.989346661299623
"13","Emissions",0.395924565300362,0.388520665775216,0.981299721780261
"14","Costal & marine",0.015150580966675,0.0135419306479809,0.89382253246707
"15","Management",0.0526163539118372,0.0455270305813837,0.865263880839555
"16","Terrestrial",0.0190616461125545,0.0161308383501874,0.846245820268542
"17","Energy",0.0475263829410963,0.0401894633375543,0.845624279620958
"18","AFOLU",0.0478233336527455,0.039784545186455,0.831906564175101
"19","Cross-sectoral (mitigation)",0.044596392368811,0.0370687833201386,0.83120587453758
"20","Behavioural & institutional",0.00348053769789944,0.0028060106757837,0.80620034010181
"21","Waste",0.0239500327434709,0.0192870645454535,0.805304308016504
"22","Mountains, snow & ice",0.00293894176623699,0.00226219315496664,0.769730513532137
"23","Industry",0.0050894177944029,0.00346814990060295,0.681443347884911
